<?xml version="1.0" encoding="UTF-8" standalone="no"?>
<svg
   xmlns:dc="http://purl.org/dc/elements/1.1/"
   xmlns:cc="http://creativecommons.org/ns#"
   xmlns:rdf="http://www.w3.org/1999/02/22-rdf-syntax-ns#"
   xmlns:svg="http://www.w3.org/2000/svg"
   xmlns="http://www.w3.org/2000/svg"
   xmlns:xlink="http://www.w3.org/1999/xlink"
   xmlns:sodipodi="http://sodipodi.sourceforge.net/DTD/sodipodi-0.dtd"
   xmlns:inkscape="http://www.inkscape.org/namespaces/inkscape"
   width="1920"
   height="1080"
   viewBox="0 0 507.9936 285.74641"
   version="1.1"
   id="svg8"
   inkscape:version="1.0.1 (3bc2e813f5, 2020-09-07)"
   sodipodi:docname="logos.svg"
   inkscape:export-filename="/home/k/splitlinux.org/locked.png"
   inkscape:export-xdpi="96"
   inkscape:export-ydpi="96">
  <defs
     id="defs2">
    <linearGradient
       inkscape:collect="always"
       id="linearGradient1005">
      <stop
         style="stop-color:#ffff00;stop-opacity:1;"
         offset="0"
         id="stop1001" />
      <stop
         style="stop-color:#000000;stop-opacity:1"
         offset="1"
         id="stop1003" />
    </linearGradient>
    <rect
       x="19.191843"
       y="44.485935"
       width="59.292538"
       height="87.68232"
       id="rect24" />
    <rect
       x="16.320395"
       y="38.547081"
       width="200.08058"
       height="159.10059"
       id="rect18" />
    <rect
       x="5.220233"
       y="15.175369"
       width="232.02808"
       height="218.84485"
       id="rect12" />
    <rect
       id="rect24-3"
       height="87.68232"
       width="59.292538"
       y="44.485935"
       x="19.191843" />
    <rect
       id="rect37"
       height="87.68232"
       width="59.292538"
       y="44.485935"
       x="19.191843" />
    <linearGradient
       inkscape:collect="always"
       xlink:href="#linearGradient1005"
       id="linearGradient1007"
       x1="1284.1039"
       y1="746.62311"
       x2="412.48395"
       y2="464.67596"
       gradientUnits="userSpaceOnUse"
       gradientTransform="matrix(0.26442865,0,0,0.26449381,-0.83087271,-0.3525953)" />
    <linearGradient
       inkscape:collect="always"
       xlink:href="#linearGradient1005"
       id="linearGradient1007-2-7"
       x1="-194.1152"
       y1="-142.97206"
       x2="-184.92247"
       y2="-146.03145"
       gradientUnits="userSpaceOnUse"
       gradientTransform="matrix(0.9691407,0,0,0.99967702,-3.0437415,-1.3341952)" />
  </defs>
  <sodipodi:namedview
     inkscape:guide-bbox="true"
     showguides="true"
     id="base"
     pagecolor="#ffffff"
     bordercolor="#666666"
     borderopacity="1.0"
     inkscape:pageopacity="0.0"
     inkscape:pageshadow="2"
     inkscape:zoom="0.36894666"
     inkscape:cx="616.4817"
     inkscape:cy="826.15803"
     inkscape:document-units="px"
     inkscape:current-layer="layer1"
     inkscape:document-rotation="0"
     showgrid="false"
     inkscape:window-width="1918"
     inkscape:window-height="1059"
     inkscape:window-x="0"
     inkscape:window-y="19"
     inkscape:window-maximized="0"
     units="px" />
  <metadata
     id="metadata5">
    <rdf:RDF>
      <cc:Work
         rdf:about="">
        <dc:format>image/svg+xml</dc:format>
        <dc:type
           rdf:resource="http://purl.org/dc/dcmitype/StillImage" />
        <dc:title></dc:title>
      </cc:Work>
    </rdf:RDF>
  </metadata>
  <g
     inkscape:label="Ebene 1"
     inkscape:groupmode="layer"
     id="layer1">
    <text
       xml:space="preserve"
       id="text10"
       style="font-style:normal;font-weight:normal;font-size:4.23333px;line-height:125%;font-family:Sans;letter-spacing:0px;word-spacing:0px;white-space:pre;shape-inside:url(#rect12);fill:#000000;fill-opacity:1;stroke:none;stroke-width:0.264583px;stroke-linecap:butt;stroke-linejoin:miter;stroke-opacity:1;" />
    <text
       xml:space="preserve"
       id="text16"
       style="font-style:normal;font-variant:normal;font-weight:normal;font-stretch:normal;font-size:4.23333px;line-height:125%;font-family:Chinyen;-inkscape-font-specification:Chinyen;letter-spacing:0px;word-spacing:0px;white-space:pre;shape-inside:url(#rect18);fill:#000000;fill-opacity:1;stroke:none;stroke-width:0.264583px;stroke-linecap:butt;stroke-linejoin:miter;stroke-opacity:1;" />
    <g
       id="g259">
      <path
         id="rect999-8-0"
         style="fill:url(#linearGradient1007-2-7);fill-opacity:1;stroke:#000000;stroke-width:0.196856;stroke-opacity:1"
         d="M 266.83398 1079.9023 L 0.09765625 341.51562 L 0.09765625 1079.9023 L 266.83398 1079.9023 z "
         transform="scale(0.26458)" />
      <path
         id="path225"
         style="fill:url(#linearGradient1007-2-7);fill-opacity:1;stroke:#000000;stroke-width:0.196856;stroke-opacity:1"
         d="M 0.09765625 0.09765625 L 0.09765625 341.51562 L 266.83398 1079.9023 L 1919.9023 1079.9023 L 1919.9023 0.09765625 L 0.09765625 0.09765625 z "
         transform="scale(0.26458)" />
      <g
         id="g3299"
         transform="matrix(0.49496417,0,0,0.49496417,342.58114,193.14088)">
        <rect
           transform="matrix(0.98940431,-0.14518646,-0.31450543,0.94925567,0,0)"
           style="fill:#000000;stroke-width:1.50547"
           id="rect3283"
           width="119.06215"
           height="75.037628"
           x="248.60594"
           y="151.75165" />
        <g
           transform="matrix(5.025848,0,0,4.3682929,88.39916,-764.47676)"
           id="g3289">
          <path
             sodipodi:nodetypes="ccccccccccccccc"
             id="path3285"
             d="m 45.371778,198.52381 -14.130165,2.09682 -1.12869,3.88321 14.086412,-2.09032 z m -1.650032,5.50296 -7.393181,1.0971 -1.085602,3.59639 7.436928,-1.10359 z m -1.649865,5.57304 -7.436927,1.10359 -0.955185,3.2265 7.436927,-1.10358 z"
             style="color:#000000;font-style:normal;font-variant:normal;font-weight:normal;font-stretch:normal;font-size:medium;line-height:125%;font-family:'Voyage Fantastique Gradient';-inkscape-font-specification:'Voyage Fantastique Gradient';font-variant-ligatures:normal;font-variant-position:normal;font-variant-caps:normal;font-variant-numeric:normal;font-variant-alternates:normal;font-variant-east-asian:normal;font-feature-settings:normal;font-variation-settings:normal;text-indent:0;text-align:start;text-decoration:none;text-decoration-line:none;text-decoration-style:solid;text-decoration-color:#000000;letter-spacing:0px;word-spacing:0px;text-transform:none;writing-mode:lr-tb;direction:ltr;text-orientation:mixed;dominant-baseline:auto;baseline-shift:baseline;text-anchor:start;white-space:normal;shape-padding:0;shape-margin:0;inline-size:0;clip-rule:nonzero;display:inline;overflow:visible;visibility:visible;isolation:auto;mix-blend-mode:normal;color-interpolation:sRGB;color-interpolation-filters:linearRGB;solid-color:#000000;solid-opacity:1;vector-effect:none;fill:#ffff00;fill-opacity:1;fill-rule:nonzero;stroke:none;stroke-width:0.2;stroke-linecap:butt;stroke-linejoin:miter;stroke-miterlimit:4;stroke-dasharray:none;stroke-dashoffset:0;stroke-opacity:1;color-rendering:auto;image-rendering:auto;shape-rendering:auto;text-rendering:auto;enable-background:accumulate;stop-color:#000000" />
          <path
             sodipodi:nodetypes="ccccccccccccccccccccccccccccccccc"
             id="path3287"
             d="m 41.167129,212.9495 1.037233,-3.50169 -0.13321,0.0198 -7.487596,1.1111 -1.036021,3.50151 z m -0.101127,-0.24699 -7.253874,1.07642 0.873771,-2.9515 7.253874,-1.07642 z m 1.664954,-4.96113 1.122391,-3.8656 -0.132001,0.0196 -7.442789,1.10446 -1.169617,3.8726 z m -0.102343,-0.24875 -7.251451,1.07606 1.002523,-3.32187 7.211489,-1.07013 z m 1.62136,-4.95465 1.254941,-4.16474 -0.133208,0.0198 -14.18199,2.1045 -1.207714,4.15774 z m -0.101133,-0.24894 -13.904671,2.06336 1.049097,-3.60826 13.944633,-2.06928 z"
             style="color:#000000;font-style:normal;font-variant:normal;font-weight:normal;font-stretch:normal;font-size:medium;line-height:125%;font-family:'Voyage Fantastique Gradient';-inkscape-font-specification:'Voyage Fantastique Gradient';font-variant-ligatures:normal;font-variant-position:normal;font-variant-caps:normal;font-variant-numeric:normal;font-variant-alternates:normal;font-variant-east-asian:normal;font-feature-settings:normal;font-variation-settings:normal;text-indent:0;text-align:start;text-decoration:none;text-decoration-line:none;text-decoration-style:solid;text-decoration-color:#000000;letter-spacing:0px;word-spacing:0px;text-transform:none;writing-mode:lr-tb;direction:ltr;text-orientation:mixed;dominant-baseline:auto;baseline-shift:baseline;text-anchor:start;white-space:normal;shape-padding:0;shape-margin:0;inline-size:0;clip-rule:nonzero;display:inline;overflow:visible;visibility:visible;isolation:auto;mix-blend-mode:normal;color-interpolation:sRGB;color-interpolation-filters:linearRGB;solid-color:#000000;solid-opacity:1;vector-effect:none;fill:#000000;fill-opacity:1;fill-rule:nonzero;stroke:none;stroke-width:0.2;stroke-linecap:butt;stroke-linejoin:miter;stroke-miterlimit:4;stroke-dasharray:none;stroke-dashoffset:0;stroke-opacity:1;color-rendering:auto;image-rendering:auto;shape-rendering:auto;text-rendering:auto;enable-background:accumulate;stop-color:#000000" />
        </g>
        <g
           transform="matrix(5.025848,0,0,4.3682929,88.39916,-765.85413)"
           id="g3297">
          <path
             id="path3291"
             d="m 17.315016,211.66853 c 0.290634,-0.95634 0.542242,-1.75262 0.559126,-1.7695 0.03969,-0.0397 13.752104,-2.07887 13.781518,-2.04946 0.02733,0.0273 -0.963596,3.4347 -1.013341,3.48445 -0.02938,0.0294 -13.637111,2.07331 -13.803365,2.07331 -0.0288,0 0.185428,-0.78246 0.476062,-1.7388 z"
             style="fill:#ffff00;stroke:#000000;stroke-width:0.2;stroke-miterlimit:4;stroke-dasharray:none" />
          <path
             id="path3293"
             d="m 18.472502,207.83855 c 0,-0.1196 0.888733,-3.10626 0.936307,-3.14654 0.04916,-0.0416 7.110373,-1.09864 7.13222,-1.06765 0.01923,0.0273 -0.954162,3.17163 -0.993397,3.20889 -0.03342,0.0317 -6.829001,1.06071 -7.005224,1.06071 -0.03845,0 -0.06991,-0.0249 -0.06991,-0.0554 z"
             style="fill:#ffff00;stroke:#000000;stroke-width:0.2;stroke-miterlimit:4;stroke-dasharray:none" />
          <path
             id="path3295"
             d="m 20.132326,202.19341 c 0.01947,-0.0655 0.208108,-0.70108 0.419187,-1.41237 0.211079,-0.7113 0.390385,-1.30011 0.398457,-1.30847 0.04553,-0.0472 7.063698,-1.05063 7.099276,-1.01505 0.04281,0.0428 -0.70762,2.68885 -0.788421,2.77996 -0.03985,0.0449 -6.792275,1.07505 -7.046986,1.07505 -0.07946,0 -0.105577,-0.0382 -0.08151,-0.11912 z"
             style="fill:#ffff00;stroke:#000000;stroke-width:0.2;stroke-miterlimit:4;stroke-dasharray:none" />
        </g>
      </g>
    </g>
  </g>
</svg>
